{
	"Name": "Prismatic Boots",
	"Description": "These boots shimmer with prismatic energy.",
	"Price": 250,
	"Defense": 2,
	"Immunity": 2,
	"PurchaseFrom": null,
	"NameLocalization":
	{
	},
	"DescriptionLocalization":
	{
	}
}
